<?xml version="1.0" encoding="UTF-8" standalone="no"?>
<!-- Created with Inkscape (http://www.inkscape.org/) -->
<svg
   xmlns:dc="http://purl.org/dc/elements/1.1/"
   xmlns:cc="http://web.resource.org/cc/"
   xmlns:rdf="http://www.w3.org/1999/02/22-rdf-syntax-ns#"
   xmlns:svg="http://www.w3.org/2000/svg"
   xmlns="http://www.w3.org/2000/svg"
   xmlns:xlink="http://www.w3.org/1999/xlink"
   xmlns:sodipodi="http://inkscape.sourceforge.net/DTD/sodipodi-0.dtd"
   xmlns:inkscape="http://www.inkscape.org/namespaces/inkscape"
   width="95.000000px"
   height="80.000000px"
   id="svg2"
   sodipodi:version="0.32"
   inkscape:version="0.42.2"
   sodipodi:docbase="/home/keithp/misc/freedesktop"
   sodipodi:docname="x-org-plain.svg">
  <defs
     id="defs4">
    <linearGradient
       id="linearGradient2340">
      <stop
         style="stop-color:#ed4f1b;stop-opacity:1;"
         offset="0"
         id="stop2342" />
      <stop
         style="stop-color:#fdc354;stop-opacity:1.0000000;"
         offset="1.0000000"
         id="stop2344" />
    </linearGradient>
    <linearGradient
       inkscape:collect="always"
       xlink:href="#linearGradient2340"
       id="linearGradient1344"
       gradientUnits="userSpaceOnUse"
       gradientTransform="translate(-339.2924,-267.6766)"
       x1="350.33423"
       y1="301.51065"
       x2="425.51083"
       y2="321.84296" />
    <linearGradient
       inkscape:collect="always"
       xlink:href="#linearGradient2340"
       id="linearGradient2088"
       gradientUnits="userSpaceOnUse"
       gradientTransform="translate(-339.2924,-267.6766)"
       x1="350.33423"
       y1="301.51065"
       x2="425.51083"
       y2="321.84296" />
    <linearGradient
       inkscape:collect="always"
       xlink:href="#linearGradient2340"
       id="linearGradient1379"
       gradientUnits="userSpaceOnUse"
       gradientTransform="translate(-338.8196,-267.6766)"
       x1="350.33423"
       y1="301.51065"
       x2="425.51083"
       y2="321.84296" />
  </defs>
  <sodipodi:namedview
     id="base"
     pagecolor="#ffffff"
     bordercolor="#666666"
     borderopacity="1.0"
     inkscape:pageopacity="0.0"
     inkscape:pageshadow="2"
     inkscape:zoom="5.6568544"
     inkscape:cx="76.280123"
     inkscape:cy="38.461026"
     inkscape:document-units="px"
     inkscape:current-layer="layer1"
     inkscape:window-width="1024"
     inkscape:window-height="729"
     inkscape:window-x="0"
     inkscape:window-y="23"
     showguides="true"
     inkscape:guide-bbox="true" />
  <metadata
     id="metadata7">
    <rdf:RDF>
      <cc:Work
         rdf:about="">
        <dc:format>image/svg+xml</dc:format>
        <dc:type
           rdf:resource="http://purl.org/dc/dcmitype/StillImage" />
        <dc:title>X.org Foundation Logo</dc:title>
        <dc:date>2005-9-15</dc:date>
        <dc:creator>
          <cc:Agent>
            <dc:title>Keith Packard</dc:title>
          </cc:Agent>
        </dc:creator>
        <cc:license
           rdf:resource="http://creativecommons.org/licenses/by-sa/2.0/" />
      </cc:Work>
      <cc:License
         rdf:about="http://creativecommons.org/licenses/by-sa/2.0/">
        <cc:permits
           rdf:resource="http://web.resource.org/cc/Reproduction" />
        <cc:permits
           rdf:resource="http://web.resource.org/cc/Distribution" />
        <cc:requires
           rdf:resource="http://web.resource.org/cc/Notice" />
        <cc:requires
           rdf:resource="http://web.resource.org/cc/Attribution" />
        <cc:permits
           rdf:resource="http://web.resource.org/cc/DerivativeWorks" />
        <cc:requires
           rdf:resource="http://web.resource.org/cc/ShareAlike" />
      </cc:License>
    </rdf:RDF>
  </metadata>
  <g
     inkscape:label="Layer 1"
     inkscape:groupmode="layer"
     id="layer1">
    <path
       d="M 7.8762897,0.0000000 L 38.407540,40.750000 L 7.8762897,79.156250 L 15.063790,79.156250 L 52.095040,32.593750 L 27.657540,0.0000000 L 7.8762897,0.0000000 z M 79.813790,0.0000000 L 42.782540,46.562500 L 67.220040,79.156250 L 87.001290,79.156250 L 56.470040,38.406250 L 87.001290,0.0000000 L 79.813790,0.0000000 z "
       id="path1507" />
    <path
       sodipodi:nodetypes="cccssccccccssscccssssc"
       style="fill:url(#linearGradient1379);fill-opacity:1.0000000;stroke:none;stroke-width:1.0000000;stroke-linecap:round;stroke-linejoin:miter;stroke-miterlimit:4.0000000;stroke-opacity:1.0000000;opacity:1.0000000"
       d="M 47.626290,13.937500 C 44.799570,13.937500 42.066310,14.181580 39.376290,14.500000 L 49.876290,28.500000 C 41.588890,15.553570 49.391620,16.406250 50.626290,16.406250 C 55.507910,16.406250 60.116340,17.148670 64.438790,18.281250 C 64.448460,18.283780 64.460370,18.278710 64.470040,18.281250 L 65.688790,16.750000 L 65.938790,16.406250 C 60.305100,14.817800 54.126640,13.937500 47.626290,13.937500 z M 71.407540,20.656250 L 72.813790,18.875000 C 86.535824,24.446567 94.778397,35.061848 94.657540,45.218750 C 94.447576,62.864274 73.582780,76.499990 47.626290,76.500000 C 21.669830,76.500000 0.59503970,62.490530 0.59503970,45.218750 C 0.59503970,34.391210 8.8949597,24.865680 21.470040,19.250000 L 22.470040,20.625000 L 24.563790,23.406250 C 23.891920,23.818920 23.132180,24.150680 22.501290,24.593750 C 15.300440,29.650910 10.845040,36.634870 10.845040,44.343750 C 10.845040,59.761510 28.670630,72.250000 50.626290,72.250000 C 72.581950,72.250000 90.340670,59.631922 90.407540,44.343750 C 90.436645,37.627112 85.834670,26.812120 71.407540,20.656250 z "
       id="path1562" />
  </g>
</svg>
