<?xml version="1.0" encoding="UTF-8" standalone="no"?>
<svg
   xmlns:dc="http://purl.org/dc/elements/1.1/"
   xmlns:cc="http://creativecommons.org/ns#"
   xmlns:rdf="http://www.w3.org/1999/02/22-rdf-syntax-ns#"
   xmlns:svg="http://www.w3.org/2000/svg"
   xmlns="http://www.w3.org/2000/svg"
   xmlns:xlink="http://www.w3.org/1999/xlink"
   width="377.00000px"
   height="80.000000px"
   id="svg2"
   version="1.1">
  <defs
     id="defs4">
    <linearGradient
       id="linearGradient2340">
      <stop
         style="stop-color:#ed4f1b;stop-opacity:1;"
         offset="0"
         id="stop2342" />
      <stop
         style="stop-color:#fdc354;stop-opacity:1.0000000;"
         offset="1.0000000"
         id="stop2344" />
    </linearGradient>
    <linearGradient
       xlink:href="#linearGradient2340"
       id="linearGradient1344"
       gradientUnits="userSpaceOnUse"
       gradientTransform="translate(-339.2924,-267.6766)"
       x1="350.33423"
       y1="301.51065"
       x2="425.51083"
       y2="321.84296" />
    <linearGradient
       xlink:href="#linearGradient2340"
       id="linearGradient2088"
       gradientUnits="userSpaceOnUse"
       gradientTransform="translate(-339.2924,-267.6766)"
       x1="350.33423"
       y1="301.51065"
       x2="425.51083"
       y2="321.84296" />
    <linearGradient
       xlink:href="#linearGradient2340"
       id="linearGradient2234"
       gradientUnits="userSpaceOnUse"
       gradientTransform="translate(-338.8196,-267.6766)"
       x1="350.33423"
       y1="301.51065"
       x2="425.51083"
       y2="321.84296" />
    <linearGradient
       xlink:href="#linearGradient2340"
       id="linearGradient2248"
       gradientUnits="userSpaceOnUse"
       gradientTransform="translate(-338.8196,-267.6766)"
       x1="350.33423"
       y1="301.51065"
       x2="425.51083"
       y2="321.84296" />
  </defs>
  <metadata
     id="metadata7">
    <rdf:RDF>
      <cc:Work
         rdf:about="">
        <dc:format>image/svg+xml</dc:format>
        <dc:type
           rdf:resource="http://purl.org/dc/dcmitype/StillImage" />
        <dc:title />
        <dc:date>2005-9-15</dc:date>
        <dc:creator>
          <cc:Agent>
            <dc:title>Keith Packard</dc:title>
          </cc:Agent>
        </dc:creator>
        <cc:license
           rdf:resource="http://creativecommons.org/licenses/by-sa/2.0/" />
      </cc:Work>
      <cc:License
         rdf:about="http://creativecommons.org/licenses/by-sa/2.0/">
        <cc:permits
           rdf:resource="http://web.resource.org/cc/Reproduction" />
        <cc:permits
           rdf:resource="http://web.resource.org/cc/Distribution" />
        <cc:requires
           rdf:resource="http://web.resource.org/cc/Notice" />
        <cc:requires
           rdf:resource="http://web.resource.org/cc/Attribution" />
        <cc:permits
           rdf:resource="http://web.resource.org/cc/DerivativeWorks" />
        <cc:requires
           rdf:resource="http://web.resource.org/cc/ShareAlike" />
      </cc:License>
    </rdf:RDF>
  </metadata>
  <g
     id="layer1">
    <g
       id="g2241"
       transform="translate(0.01562377,0.421875)">
      <path
         id="path1507"
         d="M 7.8762897,0 38.40754,40.75 7.8762897,79.15625 H 15.06379 L 52.09504,32.59375 27.65754,0 Z M 79.81379,0 42.78254,46.5625 67.22004,79.15625 H 87.00129 L 56.47004,38.40625 87.00129,0 Z" />
      <g
         aria-label="Org Foundation"
         id="text1325"
         style="font-style:normal;font-variant:normal;font-weight:normal;font-stretch:normal;line-height:0%;font-family:'Frutiger LT 55 Roman';text-align:start;writing-mode:lr-tb;text-anchor:start;fill:#000000;fill-opacity:1;stroke:none;stroke-width:1pt;stroke-linecap:butt;stroke-linejoin:miter;stroke-opacity:1">
        <path
           d="m 83.894338,41.178123 q 0,-3.12 0.88,-5.76 0.92,-2.64 2.64,-4.56 1.76,-1.92 4.24,-3 2.48,-1.12 5.68,-1.12 3.160002,0 5.640002,1.12 2.52,1.08 4.24,3 1.76,1.92 2.64,4.56 0.92,2.64 0.92,5.76 0,3.2 -0.92,5.84 -0.88,2.64 -2.6,4.56 -1.72,1.92 -4.24,3 -2.48,1.04 -5.680002,1.04 -3.2,0 -5.72,-1.04 -2.48,-1.08 -4.2,-3 -1.72,-1.92 -2.64,-4.56 -0.88,-2.64 -0.88,-5.84 z m 4.24,0 q 0,2.08 0.52,4.04 0.56,1.96 1.68,3.52 1.12,1.52 2.84,2.44 1.76,0.92 4.16,0.92 2.4,0 4.120002,-0.92 1.76,-0.92 2.88,-2.44 1.12,-1.56 1.64,-3.52 0.56,-1.96 0.56,-4.04 0,-2.12 -0.6,-4.08 -0.56,-2 -1.72,-3.52 -1.12,-1.52 -2.84,-2.4 -1.720002,-0.92 -4.040002,-0.92 -2.32,0 -4.04,0.92 -1.72,0.88 -2.88,2.4 -1.12,1.52 -1.72,3.52 -0.56,1.96 -0.56,4.08 z"
           style="font-size:40px;line-height:1.25"
           id="path20" />
        <path
           d="m 116.09433,34.738123 h 3.52 v 3.16 h 0.08 q 0.76,-1.6 2.2,-2.6 1.48,-1.04 3.12,-1.04 0.84,0 1.36,0.08 0.52,0.08 1.12,0.2 v 3.36 q -0.52,-0.2 -1.08,-0.28 -0.52,-0.08 -1,-0.08 -2.52,0 -4.04,2.24 -1.52,2.24 -1.52,6.08 v 9.28 h -3.76 z"
           style="font-size:40px;line-height:1.25"
           id="path22" />
        <path
           d="m 139.97433,52.098123 q 1.32,0 2.4,-0.52 1.12,-0.56 1.88,-1.48 0.8,-0.96 1.24,-2.2 0.44,-1.28 0.44,-2.72 0,-1.6 -0.36,-3 -0.36,-1.44 -1.12,-2.52 -0.76,-1.08 -1.88,-1.72 -1.12,-0.64 -2.6,-0.64 -1.44,0 -2.52,0.72 -1.04,0.68 -1.76,1.8 -0.68,1.08 -1.04,2.44 -0.36,1.32 -0.36,2.64 0,1.44 0.4,2.76 0.4,1.28 1.12,2.28 0.72,1 1.76,1.6 1.08,0.56 2.4,0.56 z m 9.72,2.16 q 0,4.64 -2.52,7.2 -2.52,2.56 -8,2.56 -0.8,0 -1.6,-0.08 -0.76,-0.04 -1.64,-0.2 -0.88,-0.16 -1.88,-0.44 -0.96,-0.24 -2.2,-0.68 l 0.4,-3.48 q 1.08,0.48 1.96,0.84 0.92,0.36 1.76,0.56 0.84,0.24 1.72,0.32 0.88,0.12 1.92,0.12 3,0 4.64,-1.88 1.68,-1.88 1.68,-5.12 v -2 h -0.08 q -1.2,1.6 -3.04,2.4 -1.84,0.76 -3.8,0.76 -2.2,0 -3.84,-0.8 -1.64,-0.84 -2.72,-2.24 -1.08,-1.4 -1.64,-3.2 -0.52,-1.8 -0.52,-3.8 0,-1.96 0.56,-3.88 0.56,-1.96 1.68,-3.48 1.16,-1.56 2.84,-2.52 1.72,-0.96 4.04,-0.96 2.72,0 4.28,0.92 1.6,0.92 2.44,2.6 h 0.08 v -3.04 h 3.48 z"
           style="font-size:40px;line-height:1.25"
           id="path24" />
        <path
           d="m 167.33425,27.218123 h 14.84 v 3.52 h -10.84 v 8.16 h 10.36 v 3.52 h -10.36 v 12.72 h -4 z"
           style="font-size:40px;line-height:1.25"
           id="path26" />
        <path
           d="m 189.85418,44.938123 q 0,1.36 0.36,2.72 0.4,1.36 1.16,2.48 0.8,1.08 2,1.76 1.2,0.68 2.88,0.68 1.64,0 2.84,-0.68 1.2,-0.68 1.96,-1.76 0.8,-1.12 1.16,-2.48 0.4,-1.36 0.4,-2.72 0,-1.44 -0.44,-2.8 -0.44,-1.4 -1.24,-2.48 -0.8,-1.08 -2,-1.72 -1.2,-0.64 -2.68,-0.64 -1.52,0 -2.72,0.64 -1.16,0.64 -2,1.72 -0.8,1.08 -1.24,2.48 -0.44,1.36 -0.44,2.8 z m -4,0 q 0,-2.32 0.72,-4.28 0.76,-1.96 2.12,-3.36 1.4,-1.44 3.28,-2.24 1.92,-0.8 4.28,-0.8 2.32,0 4.24,0.8 1.92,0.8 3.28,2.24 1.36,1.4 2.08,3.36 0.76,1.96 0.76,4.28 0,2.2 -0.76,4.16 -0.76,1.92 -2.12,3.4 -1.36,1.44 -3.28,2.28 -1.92,0.84 -4.2,0.84 -2.32,0 -4.24,-0.84 -1.88,-0.84 -3.28,-2.28 -1.36,-1.48 -2.12,-3.4 -0.76,-1.96 -0.76,-4.16 z"
           style="font-size:40px;line-height:1.25"
           id="path28" />
        <path
           d="m 229.6941,55.138123 h -3.64 v -3.24 h -0.08 q -0.84,1.76 -2.68,2.76 -1.84,0.96 -4,0.96 -3.96,0 -5.8,-2.32 -1.84,-2.32 -1.84,-6.44 v -12.12 h 3.76 v 10.56 q 0,3.6 0.92,5.36 0.92,1.76 3.4,1.92 1.6,0 2.76,-0.6 1.2,-0.64 1.96,-1.72 0.76,-1.12 1.12,-2.64 0.36,-1.56 0.36,-3.44 v -9.44 h 3.76 z"
           style="font-size:40px;line-height:1.25"
           id="path30" />
        <path
           d="m 236.09403,34.738123 h 3.64 v 3.24 h 0.08 q 0.84,-1.76 2.68,-2.72 1.84,-1 4,-1 3.96,0 5.8,2.32 1.84,2.32 1.84,6.44 v 12.12 h -3.76 v -10.56 q 0,-3.6 -0.92,-5.36 -0.92,-1.76 -3.4,-1.92 -1.6,0 -2.8,0.64 -1.16,0.6 -1.92,1.72 -0.76,1.08 -1.12,2.64 -0.36,1.56 -0.36,3.4 v 9.44 h -3.76 z"
           style="font-size:40px;line-height:1.25"
           id="path32" />
        <path
           d="m 263.17395,44.858123 q -0.04,1.2 0.28,2.56 0.32,1.36 1,2.52 0.68,1.12 1.76,1.88 1.08,0.76 2.6,0.76 1.6,0 2.72,-0.68 1.16,-0.72 1.88,-1.84 0.72,-1.12 1.04,-2.44 0.36,-1.36 0.36,-2.64 0,-1.44 -0.4,-2.8 -0.36,-1.4 -1.12,-2.48 -0.72,-1.08 -1.88,-1.72 -1.12,-0.68 -2.64,-0.68 -1.52,0 -2.6,0.68 -1.08,0.64 -1.76,1.72 -0.68,1.04 -1,2.4 -0.28,1.36 -0.24,2.76 z m 11.8,7.4 h -0.08 q -0.36,0.56 -1,1.16 -0.64,0.6 -1.52,1.08 -0.84,0.48 -1.96,0.8 -1.12,0.32 -2.48,0.32 -2.32,0 -4,-0.92 -1.64,-0.96 -2.72,-2.52 -1.04,-1.56 -1.56,-3.52 -0.48,-2 -0.48,-4.08 0,-2.04 0.52,-3.92 0.56,-1.88 1.64,-3.28 1.12,-1.44 2.76,-2.28 1.64,-0.84 3.88,-0.84 2.68,0 4.28,0.96 1.6,0.92 2.48,2.32 h 0.08 v -12.4 h 3.76 v 30 h -3.6 z"
           style="font-size:40px;line-height:1.25"
           id="path34" />
        <path
           d="m 297.09388,45.418123 q -0.6,0 -1.2,-0.04 -0.6,-0.04 -1.2,-0.04 -0.76,0 -1.96,0.12 -1.2,0.08 -2.36,0.48 -1.12,0.4 -1.96,1.2 -0.8,0.76 -0.8,2.12 0,0.8 0.36,1.44 0.36,0.6 0.88,1.04 0.56,0.4 1.24,0.64 0.68,0.2 1.32,0.2 2.8,0 4.24,-1.52 1.44,-1.56 1.44,-3.84 z m -11.16,-9.24 q 1.4,-0.84 3.08,-1.36 1.68,-0.56 3.64,-0.56 4.4,0 6.28,2.12 1.92,2.12 1.92,6.32 v 8.44 q 0,1.76 0.04,2.68 0.04,0.88 0.12,1.32 h -3.52 v -2.64 h -0.08 q -0.32,0.48 -0.88,1.04 -0.56,0.52 -1.36,1 -0.76,0.44 -1.8,0.76 -1,0.32 -2.28,0.32 -1.64,0 -3.04,-0.36 -1.36,-0.36 -2.36,-1.12 -1,-0.8 -1.56,-2 -0.52,-1.2 -0.52,-2.88 0,-1.92 0.92,-3.2 0.96,-1.28 2.36,-2.04 1.4,-0.8 3.08,-1.12 1.68,-0.36 3.12,-0.36 1.12,0 2,0 0.88,0 2,0.08 0,-2.64 -1.12,-3.96 -1.08,-1.36 -3.92,-1.36 -1.6,0 -3.2,0.56 -1.56,0.56 -2.72,1.52 z"
           style="font-size:40px;line-height:1.25"
           id="path36" />
        <path
           d="m 318.05387,37.778123 h -5.4 v 11.16 q 0,1.8 0.92,2.72 0.96,0.92 2.24,0.92 0.88,0 1.48,-0.2 0.64,-0.24 1.08,-0.52 v 3.2 q -0.64,0.2 -1.48,0.36 -0.8,0.2 -1.72,0.2 -2.92,0 -4.6,-1.4 -1.68,-1.44 -1.68,-4.52 v -11.92 h -4.6 v -3.04 h 4.6 v -4.72 l 3.76,-1.2 v 5.92 h 5.4 z"
           style="font-size:40px;line-height:1.25"
           id="path38" />
        <path
           d="m 327.25387,30.178123 h -4.24 v -4.24 h 4.24 z m -4,4.56 h 3.76 v 20.4 h -3.76 z"
           style="font-size:40px;line-height:1.25"
           id="path40" />
        <path
           d="m 336.53386,44.938123 q 0,1.36 0.36,2.72 0.4,1.36 1.16,2.48 0.8,1.08 2,1.76 1.2,0.68 2.88,0.68 1.64,0 2.84,-0.68 1.2,-0.68 1.96,-1.76 0.8,-1.12 1.16,-2.48 0.4,-1.36 0.4,-2.72 0,-1.44 -0.44,-2.8 -0.44,-1.4 -1.24,-2.48 -0.8,-1.08 -2,-1.72 -1.2,-0.64 -2.68,-0.64 -1.52,0 -2.72,0.64 -1.16,0.64 -2,1.72 -0.8,1.08 -1.24,2.48 -0.44,1.36 -0.44,2.8 z m -4,0 q 0,-2.32 0.72,-4.28 0.76,-1.96 2.12,-3.36 1.4,-1.44 3.28,-2.24 1.92,-0.8 4.28,-0.8 2.32,0 4.24,0.8 1.92,0.8 3.28,2.24 1.36,1.4 2.08,3.36 0.76,1.96 0.76,4.28 0,2.2 -0.76,4.16 -0.76,1.92 -2.12,3.4 -1.36,1.44 -3.28,2.28 -1.92,0.84 -4.2,0.84 -2.32,0 -4.24,-0.84 -1.88,-0.84 -3.28,-2.28 -1.36,-1.48 -2.12,-3.4 -0.76,-1.96 -0.76,-4.16 z"
           style="font-size:40px;line-height:1.25"
           id="path42" />
        <path
           d="m 358.33377,34.738123 h 3.64 v 3.24 h 0.08 q 0.84,-1.76 2.68,-2.72 1.84,-1 4,-1 3.96,0 5.8,2.32 1.84,2.32 1.84,6.44 v 12.12 h -3.76 v -10.56 q 0,-3.6 -0.92,-5.36 -0.92,-1.76 -3.4,-1.92 -1.6,0 -2.8,0.64 -1.16,0.6 -1.92,1.72 -0.76,1.08 -1.12,2.64 -0.36,1.56 -0.36,3.4 v 9.44 h -3.76 z"
           style="font-size:40px;line-height:1.25"
           id="path44" />
      </g>
      <path
         id="path1562"
         d="m 47.62629,13.9375 c -2.82672,0 -5.55998,0.24408 -8.25,0.5625 l 10.5,14 c -8.2874,-12.94643 -0.48467,-12.09375 0.75,-12.09375 4.88162,0 9.49005,0.74242 13.8125,1.875 0.0097,0.0025 0.02158,-0.0025 0.03125,0 l 1.21875,-1.53125 0.25,-0.34375 C 60.3051,14.8178 54.12664,13.9375 47.62629,13.9375 Z m 25.1875,4.9375 -1.40625,1.78125 c 6.55213,2.84337 11.592216,6.691414 14.918866,11.590574 0.475432,-0.666052 0.747612,-1.013049 1.144092,-1.450269 0.19061,-0.2102 0.665297,-0.679549 1.058085,-1.01753 C 84.700843,25.235415 79.40295,21.67049 72.81379,18.875 Z M 21.47004,19.25 C 8.8949597,24.86568 0.5950397,34.39121 0.5950397,45.21875 0.5950397,62.49053 21.66983,76.5 47.62629,76.5 c 25.95649,-1e-5 47.03124,-14.00945 47.03125,-31.28125 0,-4.35977 -1.390687,-8.382879 -3.827177,-12.145039 -0.491443,0.55801 -0.711054,0.923244 -0.999566,1.397318 -0.338385,0.556024 -0.742842,1.411379 -1.014949,2.244579 1.07946,2.51491 1.591692,4.860142 1.591692,7.628142 C 90.40756,59.76151 72.58195,72.25 50.62629,72.25 28.67063,72.25 10.84504,59.76151 10.84504,44.34375 c 0,-7.70888 4.4554,-14.69284 11.65625,-19.75 0.63089,-0.44307 1.39063,-0.77483 2.0625,-1.1875 L 22.47004,20.625 Z"
         style="fill:url(#linearGradient2248);fill-opacity:1;stroke:none;stroke-width:1;stroke-linecap:round;stroke-linejoin:miter;stroke-miterlimit:4;stroke-opacity:1" />
      <path
         id="path1351"
         style="fill:#000000;fill-opacity:1;stroke:none;stroke-width:1;stroke-linecap:round;stroke-linejoin:miter;stroke-miterlimit:4;stroke-dasharray:none;stroke-opacity:1"
         transform="translate(0.472753)"
         d="m 78.375,52.875 a 2.5,2.5 0 0 1 -2.5,2.5 2.5,2.5 0 0 1 -2.5,-2.5 2.5,2.5 0 0 1 2.5,-2.5 2.5,2.5 0 0 1 2.5,2.5 z" />
    </g>
  </g>
</svg>
