<?xml version="1.0" encoding="UTF-8" standalone="no"?>
<svg
   xmlns:dc="http://purl.org/dc/elements/1.1/"
   xmlns:cc="http://creativecommons.org/ns#"
   xmlns:rdf="http://www.w3.org/1999/02/22-rdf-syntax-ns#"
   xmlns:svg="http://www.w3.org/2000/svg"
   xmlns="http://www.w3.org/2000/svg"
   xmlns:xlink="http://www.w3.org/1999/xlink"
   xmlns:sodipodi="http://sodipodi.sourceforge.net/DTD/sodipodi-0.dtd"
   xmlns:inkscape="http://www.inkscape.org/namespaces/inkscape"
   width="377.00000px"
   height="80.000000px"
   id="svg2"
   sodipodi:version="0.32"
   inkscape:version="1.0.2 (e86c870879, 2021-01-15)"
   sodipodi:docname="x-org-foundation-rect.svg"
   version="1.1">
  <defs
     id="defs4">
    <linearGradient
       id="linearGradient2340">
      <stop
         style="stop-color:#ed4f1b;stop-opacity:1;"
         offset="0"
         id="stop2342" />
      <stop
         style="stop-color:#fdc354;stop-opacity:1.0000000;"
         offset="1.0000000"
         id="stop2344" />
    </linearGradient>
    <linearGradient
       inkscape:collect="always"
       xlink:href="#linearGradient2340"
       id="linearGradient1344"
       gradientUnits="userSpaceOnUse"
       gradientTransform="translate(-339.2924,-267.6766)"
       x1="350.33423"
       y1="301.51065"
       x2="425.51083"
       y2="321.84296" />
    <linearGradient
       inkscape:collect="always"
       xlink:href="#linearGradient2340"
       id="linearGradient2088"
       gradientUnits="userSpaceOnUse"
       gradientTransform="translate(-339.2924,-267.6766)"
       x1="350.33423"
       y1="301.51065"
       x2="425.51083"
       y2="321.84296" />
    <linearGradient
       inkscape:collect="always"
       xlink:href="#linearGradient2340"
       id="linearGradient2234"
       gradientUnits="userSpaceOnUse"
       gradientTransform="translate(-338.8196,-267.6766)"
       x1="350.33423"
       y1="301.51065"
       x2="425.51083"
       y2="321.84296" />
    <linearGradient
       inkscape:collect="always"
       xlink:href="#linearGradient2340"
       id="linearGradient2248"
       gradientUnits="userSpaceOnUse"
       gradientTransform="translate(-338.8196,-267.6766)"
       x1="350.33423"
       y1="301.51065"
       x2="425.51083"
       y2="321.84296" />
  </defs>
  <sodipodi:namedview
     id="base"
     pagecolor="#ffffff"
     bordercolor="#666666"
     borderopacity="1.0"
     inkscape:pageopacity="0.0"
     inkscape:pageshadow="2"
     inkscape:zoom="2.4649679"
     inkscape:cx="103.93452"
     inkscape:cy="1.616921"
     inkscape:document-units="px"
     inkscape:current-layer="layer1"
     inkscape:window-width="1863"
     inkscape:window-height="924"
     inkscape:window-x="0"
     inkscape:window-y="23"
     showguides="true"
     inkscape:guide-bbox="true"
     inkscape:document-rotation="0"
     showgrid="false"
     inkscape:window-maximized="0" />
  <metadata
     id="metadata7">
    <rdf:RDF>
      <cc:Work
         rdf:about="">
        <dc:format>image/svg+xml</dc:format>
        <dc:type
           rdf:resource="http://purl.org/dc/dcmitype/StillImage" />
        <dc:title></dc:title>
        <dc:date>2005-9-15</dc:date>
        <dc:creator>
          <cc:Agent>
            <dc:title>Keith Packard</dc:title>
          </cc:Agent>
        </dc:creator>
        <cc:license
           rdf:resource="http://creativecommons.org/licenses/by-sa/2.0/" />
      </cc:Work>
      <cc:License
         rdf:about="http://creativecommons.org/licenses/by-sa/2.0/">
        <cc:permits
           rdf:resource="http://web.resource.org/cc/Reproduction" />
        <cc:permits
           rdf:resource="http://web.resource.org/cc/Distribution" />
        <cc:requires
           rdf:resource="http://web.resource.org/cc/Notice" />
        <cc:requires
           rdf:resource="http://web.resource.org/cc/Attribution" />
        <cc:permits
           rdf:resource="http://web.resource.org/cc/DerivativeWorks" />
        <cc:requires
           rdf:resource="http://web.resource.org/cc/ShareAlike" />
      </cc:License>
    </rdf:RDF>
  </metadata>
  <g
     inkscape:label="Layer 1"
     inkscape:groupmode="layer"
     id="layer1">
    <g
       id="g2241"
       transform="translate(1.562377e-2,0.421875)">
      <path
         id="path1507"
         d="M 7.8762897,0.0000000 L 38.407540,40.750000 L 7.8762897,79.156250 L 15.063790,79.156250 L 52.095040,32.593750 L 27.657540,0.0000000 L 7.8762897,0.0000000 z M 79.813790,0.0000000 L 42.782540,46.562500 L 67.220040,79.156250 L 87.001290,79.156250 L 56.470040,38.406250 L 87.001290,0.0000000 L 79.813790,0.0000000 z " />
      <text
         id="text1325"
         y="55.138123"
         x="81.774338"
         style="font-style:normal;font-variant:normal;font-weight:normal;font-stretch:normal;line-height:0%;font-family:'Frutiger LT 55 Roman';text-align:start;writing-mode:lr-tb;text-anchor:start;fill:#000000;fill-opacity:1;stroke:none;stroke-width:1pt;stroke-linecap:butt;stroke-linejoin:miter;stroke-opacity:1"
         xml:space="preserve"><tspan
           y="55.138123"
           x="81.774338"
           id="tspan2239"
           sodipodi:role="line"
           style="font-size:40px;line-height:1.25">Org Foundation</tspan></text>
      <path
         id="path1562"
         d="M 47.626290,13.937500 C 44.799570,13.937500 42.066310,14.181580 39.376290,14.500000 L 49.876290,28.500000 C 41.588890,15.553570 49.391620,16.406250 50.626290,16.406250 C 55.507910,16.406250 60.116340,17.148670 64.438790,18.281250 C 64.448460,18.283780 64.460370,18.278710 64.470040,18.281250 L 65.688790,16.750000 L 65.938790,16.406250 C 60.305100,14.817800 54.126640,13.937500 47.626290,13.937500 z M 72.813790,18.875000 L 71.407540,20.656250 C 77.959670,23.499620 82.999756,27.347664 86.326406,32.246824 C 86.801838,31.580772 87.074018,31.233775 87.470498,30.796555 C 87.661108,30.586355 88.135795,30.117006 88.528583,29.779025 C 84.700843,25.235415 79.402950,21.670490 72.813790,18.875000 z M 21.470040,19.250000 C 8.8949597,24.865680 0.59503970,34.391210 0.59503970,45.218750 C 0.59503970,62.490530 21.669830,76.500000 47.626290,76.500000 C 73.582780,76.499990 94.657530,62.490550 94.657540,45.218750 C 94.657540,40.858980 93.266853,36.835871 90.830363,33.073711 C 90.338920,33.631721 90.119309,33.996955 89.830797,34.471029 C 89.492412,35.027053 89.087955,35.882408 88.815848,36.715608 C 89.895308,39.230518 90.407540,41.575750 90.407540,44.343750 C 90.407560,59.761510 72.581950,72.250000 50.626290,72.250000 C 28.670630,72.250000 10.845040,59.761510 10.845040,44.343750 C 10.845040,36.634870 15.300440,29.650910 22.501290,24.593750 C 23.132180,24.150680 23.891920,23.818920 24.563790,23.406250 L 22.470040,20.625000 L 21.470040,19.250000 z "
         style="fill:url(#linearGradient2248);fill-opacity:1.0000000;stroke:none;stroke-width:1.0000000;stroke-linecap:round;stroke-linejoin:miter;stroke-miterlimit:4.0000000;stroke-opacity:1.0000000"
         sodipodi:nodetypes="cccsscccccccscccssscscssssccc" />
      <path
         transform="translate(0.472753,0.000000)"
         d="M 78.375000 52.875000 A 2.5000000 2.5000000 0 1 1  73.375000,52.875000 A 2.5000000 2.5000000 0 1 1  78.375000 52.875000 z"
         sodipodi:ry="2.5000000"
         sodipodi:rx="2.5000000"
         sodipodi:cy="52.875000"
         sodipodi:cx="75.875000"
         id="path1351"
         style="fill:#000000;fill-opacity:1.0000000;stroke:none;stroke-width:1.0000000;stroke-linecap:round;stroke-linejoin:miter;stroke-miterlimit:4.0000000;stroke-dasharray:none;stroke-opacity:1.0000000"
         sodipodi:type="arc" />
    </g>
  </g>
</svg>
